VLSI_HW5/test.vcd
$date
	Fri May 12 16:28:44 2023
$end
$version
	ModelSim Version 2021.2
$end
$timescale
	1ps
$end

$scope module tb_count $end
$var parameter 32 ! W $end
$var reg 8 " a_in [7:0] $end
$var reg 2 # sel [1:0] $end
$var reg 1 $ clk $end
$var reg 1 % start $end
$var reg 1 & rst $end
$var wire 1 ' done $end
$var wire 1 ( cntout [7] $end
$var wire 1 ) cntout [6] $end
$var wire 1 * cntout [5] $end
$var wire 1 + cntout [4] $end
$var wire 1 , cntout [3] $end
$var wire 1 - cntout [2] $end
$var wire 1 . cntout [1] $end
$var wire 1 / cntout [0] $end
$upscope $end
$enddefinitions $end
#0
$dumpvars
bx "
bx #
1$
0%
1&
b1000 !
x'
x/
x.
x-
x,
x+
x*
x)
x(
$end
#157
0(
0)
0*
0+
0,
0-
0.
0/
#254
0'
#5000
0$
#10000
1$
#14000
0&
#15000
0$
#20000
b1011 "
1%
b10 #
1$
#25000
0$
#30000
0%
b11111111 "
1$
#35000
0$
#40000
1$
#45000
0$
#50000
1$
#55000
0$
#60000
1$
#65000
0$
#70000
1$
#75000
0$
#80000
1$
#85000
0$
#90000
1$
#95000
0$
#100000
1$
#100146
1'
#100304
x(
x)
x*
x+
x,
x-
x.
x/
#105000
0$
#110000
1$
#110154
0'
#110310
0(
0)
0*
0+
0,
0-
0.
0/
#115000
0$
#120000
1$
#125000
0$
#130000
b11011111 "
1$
#135000
0$
#140000
b1000010 "
1%
1$
#145000
0$
#150000
bx "
b1 #
0%
1$
#155000
0$
#160000
1$
#165000
0$
#170000
1$
#175000
0$
#180000
1$
#185000
0$
#190000
b1010x001 "
1$
#195000
0$
#200000
1$
#205000
0$
#210000
1$
#215000
0$
#220000
1$
#220146
1'
#220284
x(
x)
x*
x+
x,
x-
x.
x/
#225000
0$
#230000
1$
#230154
0'
#230291
0(
0)
0*
0+
0,
0-
0.
0/
#235000
0$
#240000
1$
#245000
0$
#250000
1$
#255000
0$
#260000
1$
#265000
0$
#270000
1%
1$
#275000
0$
#280000
0%
1$
#285000
0$
#290000
1$
#295000
0$
#300000
1$
#305000
0$
#310000
b10 #
1$
#315000
0$
#320000
1$
#325000
0$
#330000
1$
#335000
0$
#340000
1$
#345000
0$
#350000
1$
#350146
1'
#350304
x(
x)
x*
x+
x,
x-
x.
x/
#355000
0$
#360000
1$
#360154
0'
#360310
0(
0)
0*
0+
0,
0-
0.
0/
